A Gentle Introduction to Statistics with R
…
mutate(): create new columns by using information from other columns

group_by() and summarize(): create summary statistics on grouped data

arrange(): sort results

count(): count discrete values

Select columns and filter rows

Select columns species, island, year.

select(dat, species, island, year)

# A tibble: 344 × 3
   species island     year
   <chr>   <chr>     <dbl>
 1 Adelie  Torgersen  2007
 2 Adelie  Torgersen  2007
 3 Adelie  Torgersen  2007
 4 Adelie  Torgersen  2007
 5 Adelie  Torgersen  2007
 6 Adelie  Torgersen  2007
 7 Adelie  Torgersen  2007
 8 Adelie  Torgersen  2007
 9 Adelie  Torgersen  2007
10 Adelie  Torgersen  2007
# ℹ 334 more rows

dat |> select(species, island, year)

# A tibble: 344 × 3
   species island     year
   <chr>   <chr>     <dbl>
 1 Adelie  Torgersen  2007
 2 Adelie  Torgersen  2007
 3 Adelie  Torgersen  2007
 4 Adelie  Torgersen  2007
 5 Adelie  Torgersen  2007
 6 Adelie  Torgersen  2007
 7 Adelie  Torgersen  2007
 8 Adelie  Torgersen  2007
 9 Adelie  Torgersen  2007
10 Adelie  Torgersen  2007
# ℹ 334 more rows

Remove columns flipper_length_mm and body_mass_g.

dat |> select(flipper_length_mm, body_mass_g)

# A tibble: 344 × 2
   flipper_length_mm body_mass_g
               <dbl>       <dbl>
 1               181        3750
 2               186        3800
 3               195        3250
 4                NA          NA
 5               193        3450
 6               190        3650
 7               181        3625
 8               195        4675
 9               193        3475
10               190        4250
# ℹ 334 more rows

Select rows (observations) of the year 2008 onward.

dat |> filter(year >= 2008)

# A tibble: 234 × 8
   species island bill_length_mm bill_depth_mm flipper_length_mm body_mass_g
   <chr>   <chr>           <dbl>         <dbl>             <dbl>       <dbl>
 1 Adelie  Biscoe           39.6          17.7               186        3500
 2 Adelie  Biscoe           40.1          18.9               188        4300
 3 Adelie  Biscoe           35            17.9               190        3450
 4 Adelie  Biscoe           42            19.5               200        4050
 5 Adelie  Biscoe           34.5          18.1               187        2900
 6 Adelie  Biscoe           41.4          18.6               191        3700
 7 Adelie  Biscoe           39            17.5               186        3550
 8 Adelie  Biscoe           40.6          18.8               193        3800
 9 Adelie  Biscoe           36.5          16.6               181        2850
10 Adelie  Biscoe           37.6          19.1               194        3750
# ℹ 224 more rows
# ℹ 2 more variables: sex <chr>, year <dbl>

Challenge

Using pipes, subset the data to include penguins data collected in 2007 and retain only numeric columns.

dat |>
  filter(year == 2007) |> 
  select(bill_length_mm, bill_depth_mm, flipper_length_mm, body_mass_g, year)

# A tibble: 110 × 5
   bill_length_mm bill_depth_mm flipper_length_mm body_mass_g  year
            <dbl>         <dbl>             <dbl>       <dbl> <dbl>
 1           39.1          18.7               181        3750  2007
 2           39.5          17.4               186        3800  2007
 3           40.3          18                 195        3250  2007
 4           NA            NA                  NA          NA  2007
 5           36.7          19.3               193        3450  2007
 6           39.3          20.6               190        3650  2007
 7           38.9          17.8               181        3625  2007
 8           39.2          19.6               195        4675  2007
 9           34.1          18.1               193        3475  2007
10           42            20.2               190        4250  2007
# ℹ 100 more rows
…
